Invoice No,Customer Name,Value
10012,Jane,1000
10013,Simon,950
10014,David,500
10015,John,254
10016,Terry,159
10017,Sue,2224
10018,Chris,7785
10019,Lima,10
10020,Moira,123
10021,James,457
10022,Mike,851
10023,Fola,156
10024,Holly,365
10025,Paul,245
10026,Jamie,1892
10027,Ashley,542
10028,Anne,368
10029,Petra,1479
10030,Richard,962
10031,Alistair,753
10032,Joe,159
10033,Ray,245
10034,Jennie,1547
10035,Anthony,632
10036,Mark,854
10037,David,753
10038,Judith,254
10039,Sally,159
10040,Zain,684
10041,Elena,529
10042,Phillip,1785
10043,Edward,698
10044,Jim,457
10045,Peter,365
10046,Mae,1424
10047,Mary,369
10048,Jon,147
